Time Profiling
…
library(tidyverse)

db <- src_sqlite("data/v7_timing.db")
db

## src:  sqlite 3.11.1 [data/v7_timing.db]
## tbls: TimeEvent, TimeModule, TimeReport

The TimeEvent table has the total time for each event.

te <- tbl(db, "TimeEvent")
te %>% collect()

## # A tibble: 500 × 4
##      Run Subrun Event       Time
##    <int>  <int> <int>      <dbl>
## 1      1      0     1 0.04066667
## 2      1      0     2 2.11977645
## 3      1      0     3 1.11163810
## 4      1      0     4 0.02122142
## 5      1      0     5 0.01811102
## 6      1      0     6 1.90626422
## 7      1      0     7 1.49305715
## 8      1      0     8 1.78778369
## 9      1      0     9 0.35362362
## 10     1      0    10 0.03596895
## # ... with 490 more rows

The TimeModule table has the time for each event broken down by module.

tm <- tbl(db, "TimeModule")
tm %>% collect()

## # A tibble: 2,500 × 5
##      Run Subrun Event                               PathModuleId
##    <int>  <int> <int>                                      <chr>
## 1      1      0     1        path1:randomsaver:RandomNumberSaver
## 2      1      0     1                      path1:artg4:artg4Main
## 3      1      0     1 path1:TriggerResults:TriggerResultInserter
## 4      1      0     1                   end_path:out1:RootOutput
## 5      1      0     1            end_path:out1:RootOutput(write)
## 6      1      0     2        path1:randomsaver:RandomNumberSaver
## 7      1      0     2                      path1:artg4:artg4Main
## 8      1      0     2 path1:TriggerResults:TriggerResultInserter
## 9      1      0     2                   end_path:out1:RootOutput
## 10     1      0     2            end_path:out1:RootOutput(write)
## # ... with 2,490 more rows, and 1 more variables: Time <dbl>
…
